import "./main.scss";
import "./About.js";
// console.log(t);
// console.log($(window).width());
// console.log($('.clik').offset().left);

// console.log(h);
// console.log($(window).height());
// console.log($('.clik').offset().left);
$(function () {
    var isOpen = false;
    var alert = true;

    // $(window).scroll(function(){
    //     var r = $(window).height() - $('.down').offset().top + 50;
    //         console.log(r);
    //         $('.Open').outerHeight(r)
    // });


    $(window).resize(function () {
        if (isOpen == true) {
            var h = $(window).height() - $('.clik').offset().top + 500;
            $('.down')
                .css('display', "block")
                .outerHeight(h)
                .css('top', $('.clik').offset().top + ($('.clik').outerHeight() / 2))
                .css('background-color', 'white');
            var t = $(window).width() - ($('.clik').offset().left + $('.clik').outerWidth());
            $('.rig')
                .css("display", "block")
                .outerWidth(t)
                .css('top', $('.clik').offset().top + ($('.clik').outerHeight() / 2))
                .css('left', $('.clik').offset().left + $('.clik').outerWidth() - 1)
                .outerHeight($('.clik').outerHeight() / 2);
            $('.lef')
                .css("display", "block")
                .outerWidth(t)
                .css('top', $('.clik').offset().top + ($('.clik').outerHeight() / 2))
                .outerHeight($('.clik').outerHeight() / 2);
            // var r = $(window).height() - $('.down').offset().top + 50;
            // console.log(r);
            // $('.Open').outerHeight(r)
        }
    });


    $('.clik').on('mouseover', function () {
        $('.clik').css('box-shadow', '0 2px 5px rgba(0, 0, 0, 0.25), 0 0px 0px rgba(0, 0, 0, 0.22)');
    });

    var h = $(window).height() - $('.clik').offset().top + 500;
    $('.clik').on('click', function () {
        isOpen = true;

        $('.down')
            .show()
            .slideDown(1000)
            .outerHeight(h)
            .css('top', $('.clik').offset().top + ($('.clik').outerHeight()))
            .css('background-color', 'white');
        var t = $(window).width() - ($('.clik').offset().left + $('.clik').outerWidth());
        $('.rig')
            .show()
            .slideDown(1000)
            .outerWidth(t)
            .css('top', $('.clik').offset().top + ($('.clik').outerHeight() / 2))
            .css('left', $('.clik').offset().left + $('.clik').outerWidth() - 3)
            .outerHeight($('.clik').outerHeight() / 2);
        $('.lef')
            .show()
            .slideDown(1000)
            .outerWidth(t)
            .css('top', $('.clik').offset().top + ($('.clik').outerHeight() / 2))
            .css('left', '3px')
            .outerHeight($('.clik').outerHeight() / 2);
        $('.Open')
            .css('top', $('.down').offset().top + 50)
            .fadeIn(1000)
        // .slideDown(1000)

        // $('.Main_form_input')
        // .css('position', 'absolute')
        $('.Main_form_input')
            .css('border-bottom-width', '0px')
            .css('border-bottom-left-radius', '0px')
            .css('border-bottom-right-radius', '0px')
            .css('border-left-width', '0px')
            .css('border-right-width', '0px')
            .css('font-size', '19px')
            .css('padding-top', '25px');

        $('.clik')
            .css('box-shadow', '0 0px 0px rgba(0, 0, 0, 0.25), 0 0px 0px rgba(0, 0, 0, 0.22)');

        if (alert == true) {
            $('.alert-warning')
                .slideDown(700)
                .delay(3000)
                .fadeOut(3000)
        }

        alert = false;

        document.getElementsByClassName('Open').innerHTML = ''

        $('.clik').off('mouseover');
    });

    $('.clik').on('mouseout', function () {
        $('.clik').css('box-shadow', '0 0px 0px rgba(0, 0, 0, 0.25), 0 0px 0px rgba(0, 0, 0, 0.22)');
    });

    $('.clik2').on('mouseover', function () {
        $('.clik2').css('box-shadow', '0 2px 5px rgba(0, 0, 0, 0.25), 0 0px 0px rgba(0, 0, 0, 0.22)');
    });
    $('.clik2').on('mouseout', function () {
        $('.clik2').css('box-shadow', '0 0px 0px rgba(0, 0, 0, 0.25), 0 0px 0px rgba(0, 0, 0, 0.22)');
    });

    $('.clik3').on('mouseover', function () {
        $('.clik3').css('box-shadow', '0 2px 5px rgba(0, 0, 0, 0.25), 0 0px 0px rgba(0, 0, 0, 0.22)');
    });
    $('.clik3').on('mouseout', function () {
        $('.clik3').css('box-shadow', '0 0px 0px rgba(0, 0, 0, 0.25), 0 0px 0px rgba(0, 0, 0, 0.22)');
    });

    $('.Open_cas').on('click', function () {
        $('.Main_form_input').text($('.Open_cas').text());
    })

    if (alert == false) {

    }

    $('.Main_form_input').on('input', function () {
        $('th').each(function (indx, element) {
            if (element.text() == $('.Main_form_input').text()) {


            }
            else {
                elem.remove();
            }
        })
    });



    $('.card').on('click', '.card_bac', function (e) {
        e.preventDefault();
        $(this)
            .next('.card_bac_panel')
            .not(':animated')
            .slideToggle();

    })

    var pos = $('.Main_form_input_contact').offset().left + $('.Main_form_input_contact').width() + $('.Main_form_input_contact').css('padding-left');
    $('.Main_form_button_contact')
        .offset(
            { 
                top: $('.Main_form_input_contact').offset().top, 
                left: (pos) 
            }
            );

            console.log($('.Main_form_input_contact').offset().left + $('.Main_form_input_contact').width() + $('.Main_form_input_contact').css('padding-left'))
        // .position()
        // .position(pos)


});


